…
Finding peak order hours

``` r
max_df <-
instacart %>%
  group_by(order_hour_of_day) %>%
  summarize(
     n = n_distinct(order_id)
    ) 

max_df %>%
    arrange(desc(n))
```

    ## # A tibble: 24 × 2
    ##   order_hour_of_day     n
    ##               <int> <int>
    ## 1                14 11103
    ## 2                15 11075
    ## 3                13 10711
    ## 4                12 10622
    ## 5                11 10610
    ## # … with 19 more rows
    ## # ℹ Use `print(n = ...)` to see more rows
…
***How many aisles are there, and which aisles are the most items
ordered from?***

``` r
instacart %>% 
  count(aisle) %>% 
   arrange(desc(n))
```

    ## # A tibble: 134 × 2
    ##   aisle                           n
    ##   <chr>                       <int>
    ## 1 fresh vegetables           150609
    ## 2 fresh fruits               150473
    ## 3 packaged vegetables fruits  78493
    ## 4 yogurt                      55240
    ## 5 packaged cheese             41699
    ## # … with 129 more rows
    ## # ℹ Use `print(n = ...)` to see more rows
…
                
accel
```

    ## # A tibble: 50,400 × 6
    ##    week day_id day    minute activity_count weekend
    ##   <int>  <int> <chr>   <dbl>          <dbl> <chr>  
    ## 1     1      1 Friday      1           88.4 Weekday
    ## 2     1      1 Friday      2           82.2 Weekday
    ## 3     1      1 Friday      3           64.4 Weekday
    ## 4     1      1 Friday      4           70.0 Weekday
    ## 5     1      1 Friday      5           75.0 Weekday
    ## # … with 50,395 more rows
    ## # ℹ Use `print(n = ...)` to see more rows
…
# Problem 3

***Loading the dataset***

``` r
library(p8105.datasets)
data("ny_noaa")

ny_noaa
```

    ## # A tibble: 2,595,176 × 7
    ##   id          date        prcp  snow  snwd tmax  tmin 
    ##   <chr>       <date>     <int> <int> <int> <chr> <chr>
    ## 1 US1NYAB0001 2007-11-01    NA    NA    NA <NA>  <NA> 
    ## 2 US1NYAB0001 2007-11-02    NA    NA    NA <NA>  <NA> 
    ## 3 US1NYAB0001 2007-11-03    NA    NA    NA <NA>  <NA> 
    ## 4 US1NYAB0001 2007-11-04    NA    NA    NA <NA>  <NA> 
    ## 5 US1NYAB0001 2007-11-05    NA    NA    NA <NA>  <NA> 
    ## # … with 2,595,171 more rows
    ## # ℹ Use `print(n = ...)` to see more rows
…
ny_noaa
```

    ## # A tibble: 2,595,176 × 9
    ##   id           year month   day  prcp  snow  snwd  tmax  tmin
    ##   <chr>       <int> <chr> <int> <dbl> <int> <int> <dbl> <dbl>
    ## 1 US1NYAB0001  2007 11        1    NA    NA    NA    NA    NA
    ## 2 US1NYAB0001  2007 11        2    NA    NA    NA    NA    NA
    ## 3 US1NYAB0001  2007 11        3    NA    NA    NA    NA    NA
    ## 4 US1NYAB0001  2007 11        4    NA    NA    NA    NA    NA
    ## 5 US1NYAB0001  2007 11        5    NA    NA    NA    NA    NA
    ## # … with 2,595,171 more rows
    ## # ℹ Use `print(n = ...)` to see more rows
…
Mode(ny_noaa$snow)
```

    ## [1] 0

Most commonly observed snowfall values

``` r
ny_noaa %>%
  count (snow) %>%
      arrange(desc(n))
```

    ## # A tibble: 282 × 2
    ##    snow       n
    ##   <int>   <int>
    ## 1     0 2008508
    ## 2    NA  381221
    ## 3    25   31022
    ## 4    13   23095
    ## 5    51   18274
    ## # … with 277 more rows
    ## # ℹ Use `print(n = ...)` to see more rows
…
